1 10 20
100 200 125
201 210 89
900 1000 174
22 22 16
21 22 16
22 21 16
59 548 144
156 511 144
69 665 145
93 624 144
271 483 144
260 621 144
184 603 144
55 411 144
134 473 144
60 409 144
48 515 144
191 622 144
186 514 144
141 528 144
74 694 145
21 577 144
57 445 144
16 467 144
99 553 144
44 637 144
124 474 144
268 498 144
101 688 145
34 672 145
154 530 144
160 433 144
150 484 144
113 526 144
259 603 144
285 513 144
72 670 145
267 586 144
73 678 145
75 671 145
85 686 145
52 601 144
26 613 144
142 654 145
253 699 145
88 400 144
149 493 144
91 596 144
116 691 145
75 503 144
168 625 144
164 573 144
54 452 144
95 619 144
139 627 144
294 659 145
29 680 145
232 550 144
10 505 144
2 540 144
120 663 145
102 611 144
147 545 144
206 676 145
168 541 144
124 434 144
89 568 144
147 624 144
158 436 144
146 566 144
235 505 144
166 527 144
94 417 144
4 611 144
52 579 144
24 430 144
45 456 144
270 543 144
117 579 144
214 460 144
158 664 145
68 573 144
281 564 144
25 578 144
298 631 144
285 654 145
116 630 144
52 447 144
11 494 144
209 647 144
207 446 144
279 477 144
270 493 144
87 551 144
4 420 144
203 631 144
254 527 144
172 485 144
139 579 144
144 418 144
225 526 144
114 699 145
111 663 145
257 442 144
212 684 145
201 469 144
385968 109569 443
348449 360019 379
291078 16835 443
75963 118162 354
6289 121097 354
196129 64393 383
153045 269546 443
359983 238842 441
223788 148977 386
142458 279393 443
297683 96623 443
123607 251717 443
23477 155322 375
324800 7296 443
292398 337616 384
220448 58883 386
192945 351973 443
394668 327212 441
256690 141614 443
264749 297000 407
38400 375335 443
54700 278173 443
122319 167982 383
98109 180501 383
4769 365083 443
85793 69300 351
349854 288152 441
63178 234338 443
136130 71321 354
301655 6667 443
137757 234639 443
23422 263824 443
284785 284788 221
93651 395058 443
237211 234836 337
119206 135266 344
290037 204770 443
261757 202409 443
123412 321619 443
213636 185597 373
255585 59671 443
333441 241859 407
327581 251026 407
10197 221917 386
377293 186356 443
99038 24448 351
93731 138263 354
59767 311837 443
269707 25129 443
230860 82574 443
18089 39656 324
247060 293002 407
209466 138173 383
281232 207169 443
308707 63022 443
265684 319298 407
339873 150039 443
242190 103043 443
256280 146727 443
83009 17886 351
395883 154471 443
58089 32950 340
183863 350408 443
226977 234501 443
359432 283260 441
34906 66822 340
235404 133440 443
321729 396890 441
265548 141885 443
385820 120114 443
251381 41164 443
348 349736 443
383914 63030 443
384932 214025 443
146845 47286 375
153131 347170 443
398102 329351 441
226175 239732 443
209852 97738 383
206748 284829 443
179566 40221 383
341761 206433 443
236553 338609 407
203768 234437 443
96933 56079 351
103156 47737 351
246466 227672 443
30540 79561 351
377286 81181 443
356023 225291 443
117610 383223 443
373340 289356 441
141957 225220 386
230157 389463 443
65797 348295 443
268714 352254 441
90403 204760 383
352626 118781 443
331107 387456 441
265657 14306 443
